{
	"binaryTag": "x86_64-centos7-gcc9-opt",
	"defaultProjects": [
		"Alignment",
		"Brunel",
		"Moore"
	],
	"gitBranch": {
		"Gaudi": "master",
		"Detector": "v0-patches",
		"Geant4": "Sim10",
		"default": "master"
	},
	"lcgVersion": "97a",
	"cmakePrefixPath": "$CMAKE_PREFIX_PATH:/cvmfs/sft.cern.ch/lcg/releases",
	"cmakeFlags": {
		"default": "",
		"Allen": "-DSTANDALONE=OFF"
	},
	"gitGroup": {
		"Gaudi": "gaudi",
		"default": "lhcb"
	},
	"gitBase": null,
	"dataPackages": [
		"AppConfig",
		"PRConfig",
		"ParamFiles"
	],
	"useDocker": false,
	"useCcache": true,
	"useDistcc": null,
	"lbenvPath": "/cvmfs/lhcb.cern.ch/lib/var/lib/LbEnv/1110/stable/linux-64",
	"projectPath": "..",
	"contribPath": "../contrib",
	"ccachePath": "../.ccache/$BINARY_TAG",
	"outputPath": "../.output",
	"localPoolDepth": null,
	"distccHosts": [
		{
			"spec": "lbquantaperf01.cern.ch/30,cpp,lzo,auth",
			"gateway": "lxplus.cern.ch",
			"localPort": 36321
		},
		{
			"spec": "lbquantaperf02.cern.ch/30,cpp,lzo,auth",
			"gateway": "lxplus.cern.ch",
			"localPort": 36322
		}
	],
	"distccPrincipal": "distccd",
	"distccLocalslots": null,
	"distccLocalslotsCpp": null,
	"distccRandomize": true
}
